Streamlining R Code
…
Data Frames

Grabbing multiple columns

dplyr::select(myIris, starts_with("Sepal"))

## # A tibble: 150 x 2
##   Sepal.Length Sepal.Width
##          <dbl>       <dbl>
## 1          5.1         3.5
## 2          4.9         3  
## 3          4.7         3.2
## 4          4.6         3.1
## 5          5           3.6
## # ... with 145 more rows
…
Pipe

Generically, pipe does the following

x %>% f(y) turns into f(x,y)

x %>% f(y) %>% g(z) turns into g(f(x, y), z)

library(Lahman) #Install pacakage if needed
Batting %>% 
  as_tibble() %>% 
  select(starts_with("X"), ends_with("ID"), G) %>% 
  rename("Doubles" = X2B, "Triples" = X3B)

## # A tibble: 105,861 x 7
##   Doubles Triples playerID  yearID teamID lgID      G
##     <int>   <int> <chr>      <int> <fct>  <fct> <int>
## 1       0       0 abercda01   1871 TRO    NA        1
## 2       6       0 addybo01    1871 RC1    NA       25
## 3       4       5 allisar01   1871 CL1    NA       29
## 4      10       2 allisdo01   1871 WS3    NA       27
## 5      11       3 ansonca01   1871 RC1    NA       25
## # ... with 105,856 more rows
…
Task requires a small change each time it is done

Example:

Summarize each column of a dataset

Summarizing columns

Consider wine data from UCI machine learning repository

wineData <- read_csv("../datasets/winequality-full.csv")
wineData

## # A tibble: 6,497 x 13
##   `fixed acidity` `volatile acidity` `citric acid` `residual sugar` chlorides
##             <dbl>              <dbl>         <dbl>            <dbl>     <dbl>
## 1             7.4               0.7           0                 1.9     0.076
## 2             7.8               0.88          0                 2.6     0.098
## 3             7.8               0.76          0.04              2.3     0.092
## 4            11.2               0.28          0.56              1.9     0.075
## 5             7.4               0.7           0                 1.9     0.076
## # ... with 6,492 more rows, and 8 more variables: free sulfur dioxide <dbl>,
## #   total sulfur dioxide <dbl>, density <dbl>, pH <dbl>, sulphates <dbl>,
## #   alcohol <dbl>, quality <dbl>, type <chr>
…
Inefficient Code

wineData$qualityCat <- qualityCat
wineData %>% select(qualityCat, quality, everything())

## # A tibble: 6,497 x 14
##   qualityCat quality `fixed acidity` `volatile acidity` `citric acid`
##   <chr>        <dbl>           <dbl>              <dbl>         <dbl>
## 1 Ok               5             7.4               0.7           0   
## 2 Ok               5             7.8               0.88          0   
## 3 Ok               5             7.8               0.76          0.04
## 4 Good             6            11.2               0.28          0.56
## 5 Ok               5             7.4               0.7           0   
## # ... with 6,492 more rows, and 9 more variables: residual sugar <dbl>,
## #   chlorides <dbl>, free sulfur dioxide <dbl>, total sulfur dioxide <dbl>,
## #   density <dbl>, pH <dbl>, sulphates <dbl>, alcohol <dbl>, type <chr>
…
dplyr to Summarize Data

group_by() and mutate() provide a nice way to add to a dataframe

wineData %>% 
  group_by(qualityCat, type) %>%
  mutate(meanAlcoholCat = mean(alcohol)) %>%
  select(meanAlcoholCat, qualityCat, type, alcohol, everything())

## # A tibble: 6,497 x 15
## # Groups:   qualityCat, type [8]
##   meanAlcoholCat qualityCat type  alcohol `fixed acidity` `volatile acidity`
##            <dbl> <chr>      <chr>   <dbl>           <dbl>              <dbl>
## 1           9.93 Ok         Red       9.4             7.4               0.7 
## 2           9.93 Ok         Red       9.8             7.8               0.88
## 3           9.93 Ok         Red       9.8             7.8               0.76
## 4          10.8  Good       Red       9.8            11.2               0.28
## 5           9.93 Ok         Red       9.4             7.4               0.7 
## # ... with 6,492 more rows, and 9 more variables: citric acid <dbl>,
## #   residual sugar <dbl>, chlorides <dbl>, free sulfur dioxide <dbl>,
## #   total sulfur dioxide <dbl>, density <dbl>, pH <dbl>, sulphates <dbl>,
## #   quality <dbl>
…
